{
  "monuments": [
    {
      "id": 1,
      "name": "Eiffeltoren",
      "height": 300,
      "constructionYear": "1889-05-06",
      "country": "FRANCE",
      "image": "https://www.mamyloe.nl/library/photos/articles/519-eiffeltoren/eiffeltoren_4.jpg"
    },
    {
      "id": 2,
      "name": "Vrijheidsbeeld",
      "height": 93,
      "constructionYear": "1886-10-28",
      "country": "VS",
      "image": "https://byevisawp-fe6d.kxcdn.com/wp-content/uploads/2020/05/US_from_UK-3-thegem-post-thumb-large.jpg"
    },
    {
      "id": 3,
      "name": "Niagarawatervallen",
      "height": 99,
      "constructionYear": "0000-00-00",
      "country": "VS",
      "image": "https://d11xlc182tbthb.cloudfront.net/files/fvrAArZP6x3Ovs2ngnzQ737jcxjq3DaR1P6XUoWr.jpeg"
    },
    {
      "id": 4,
      "name": "Stonehenge",
      "height": 5,
      "constructionYear": "0000-00-00",
      "country": "England",
      "image": "https://static.standaard.be/Assets/Images_Upload/2020/07/31/bde8765c-d268-11ea-87e1-48409d569e17.jpg?width=1152&format=jpg"
    },
    {
      "id": 5,
      "name": "Lincoln Memorial",
      "height": 30,
      "constructionYear": "1922-05-30",
      "country": "FRANCE",
      "image": "https://upload.wikimedia.org/wikipedia/commons/7/78/Aerial_view_of_Lincoln_Memorial_-_east_side_EDIT.jpeg"
    },
    {
      "id": 6,
      "name": "Atomium",
      "height": 102,
      "constructionYear": "1958-03-25",
      "country": "BELGIUM",
      "image": "https://upload.wikimedia.org/wikipedia/commons/8/82/Atomium_Belgium_1.jpg"
    },
    {
      "id": 7,
      "name": "Colosseum",
      "height": 48,
      "constructionYear": "0080-05-01",
      "country": "ITALIE",
      "image": "https://www.reisroutes.be/userfiles/fotos/colosseum_2229_xl.jpg"
    },
    {
      "id": 8,
      "name": "Nationaal Monument",
      "height": 22,
      "constructionYear": "1956-05-04",
      "country": "NETHERLANDS",
      "image": "https://upload.wikimedia.org/wikipedia/commons/3/34/Overzicht_voorzijde_-_Amsterdam_-_20357041_-_RCE.jpg"
    },
    {
      "id": 9,
      "name": "Pantheon",
      "height": 83,
      "constructionYear": "1790-01-18",
      "country": "FRANCE",
      "image": "https://www.reisroutes.be/userfiles/fotos/pantheon-rome_6985_xl.jpg"
    },
    {
      "id": 10,
      "name": "Sacre-Coeur",
      "height": 83,
      "constructionYear": "1914-12-08",
      "country": "FRANCE",
      "image": "https://upload.wikimedia.org/wikipedia/commons/thumb/3/3d/Sacre_Coeur1.JPG/1200px-Sacre_Coeur1.JPG"
    },
    {
      "id": 11,
      "name": "Standbeeld van Ambiorix",
      "height": 7,
      "constructionYear": "1866-10-06",
      "country": "BELGIUM",
      "image": "https://media-cdn.tripadvisor.com/media/photo-s/13/fa/50/c9/de-stoere-leider-een.jpg"
    },
    {
      "id": 12,
      "name": "Taj Mahal",
      "height": 73,
      "constructionYear": "1648-05-12",
      "country": "INDIA",
      "image": "https://upload.wikimedia.org/wikipedia/commons/thumb/c/c8/Taj_Mahal_in_March_2004.jpg/1200px-Taj_Mahal_in_March_2004.jpg"
    },
    {
      "id": 13,
      "name": "Mount Rushmore",
      "height": 1754,
      "constructionYear": "1941-10-31",
      "country": "VS",
      "image": "https://www.27vakantiedagen.nl/wp-content/uploads/2021/08/amerika-mount-rushmore-2.jpg"
    },
    {
      "id": 14,
      "name": "The Motherland Calls",
      "height": 85,
      "constructionYear": "1967-10-15",
      "country": "RUSSIA",
      "image": "http://kunstvensters.com/wp-content/uploads/2020/05/motherland-calls-e1588508139699.jpg"
    },
    {
      "id": 15,
      "name": "Holocaustmonument",
      "height": 1,
      "constructionYear": "2005-05-12",
      "country": "GERMANY",
      "image": "https://upload.wikimedia.org/wikipedia/commons/9/91/Holocaust_Mahnmal.JPG"
    },
    {
      "name": "Eiffeltoren2",
      "height": "300",
      "constructionYear": "1889-05-06",
      "country": "FRANCE",
      "image": "qsdf",
      "id": 16
    },
    {
      "name": "Eiffeltoren2",
      "height": "300",
      "constructionYear": "1889-05-06",
      "country": "FRANCE",
      "image": "qsdf",
      "id": 17
    }
  ],
  "artists": [
    {
      "id": 1,
      "name": "Gustave Eiffel",
      "dateOfBirth": "1932-12-15",
      "hometown": "FRANCE",
      "dead": true,
      "monumentId": 1
    },
    {
      "id": 2,
      "name": "Frédéric Auguste Bartholdi",
      "dateOfBirth": "1834-08-02",
      "nationality": "FRANCE",
      "dead": true,
      "monumentId": 2
    },
    {
      "id": 3,
      "name": "Daniel Chester French",
      "dateOfBirth": "1850-04-20",
      "hometown": "VS",
      "dead": true,
      "monumentId": 5
    },
    {
      "id": 4,
      "name": "André Polak",
      "dateOfBirth": "1914-01-19",
      "hometown": "BELGIUM",
      "dead": true,
      "monumentId": 6
    },
    {
      "id": 5,
      "name": "Jean Polak",
      "dateOfBirth": "1920-06-13",
      "hometown": "BELGIUM",
      "dead": true,
      "monumentId": 6
    },
    {
      "id": 6,
      "name": "Emperors Titus and Domitian",
      "dateOfBirth": "0051-10-24",
      "hometown": "ITALIE",
      "dead": true,
      "monumentId": 7
    },
    {
      "id": 7,
      "name": "Jacobus Johannes Pieter Oud",
      "dateOfBirth": "1890-02-09",
      "hometown": "NETHERLANDS",
      "dead": true,
      "monumentId": 8
    },
    {
      "id": 8,
      "name": "Emperor Hadrian",
      "dateOfBirth": "0138-07-10",
      "hometown": "SPAIN",
      "dead": true,
      "monumentId": 9
    },
    {
      "id": 9,
      "name": "Paul Abadie",
      "dateOfBirth": "1812-11-09",
      "hometown": "FRANCE",
      "dead": true,
      "monumentId": 10
    },
    {
      "id": 10,
      "name": "Lucien Magne",
      "dateOfBirth": "1849-12-27",
      "hometown": "FRANCE",
      "dead": true,
      "monumentId": 10
    },
    {
      "id": 11,
      "name": "Honoré Daumet",
      "dateOfBirth": "1826-11-23",
      "hometown": "FRANCE",
      "dead": true,
      "monumentId": 10
    },
    {
      "id": 12,
      "name": "Jules Bertin",
      "dateOfBirth": "1826-03-01",
      "hometown": "FRANCE",
      "dead": true,
      "monumentId": 11
    },
    {
      "id": 13,
      "name": "Taj Mahal",
      "dateOfBirth": "1942-05-17",
      "hometown": "VS",
      "dead": true,
      "monumentId": 12
    },
    {
      "id": 14,
      "name": "Gutzon Borglum",
      "dateOfBirth": "1867-03-25",
      "hometown": "VS",
      "dead": true,
      "monumentId": 13
    },
    {
      "id": 15,
      "name": "Lincoln Borglum",
      "dateOfBirth": "1912-04-09",
      "hometown": "Dijon",
      "dead": true,
      "monumentId": 13
    },
    {
      "id": 16,
      "name": "Yevgeny Vuchetich",
      "dateOfBirth": "1908-12-28",
      "hometown": "UKRAINE",
      "dead": true,
      "monumentId": 14
    },
    {
      "id": 17,
      "name": "Nikolai Nikitin",
      "dateOfBirth": "1907-12-15",
      "hometown": "RUSSIA",
      "dead": true,
      "monumentId": 14
    },
    {
      "id": 18,
      "name": "Buro Happold",
      "dateOfBirth": "01-05-1976",
      "hometown": "ENGLAND",
      "dead": true,
      "monumentId": 15
    }
  ]
}